7a
…
## Chain 2

## Chain 4 finished in 3.9 seconds.
## Chain 3 finished in 4.0 seconds.
## Chain 1 finished in 4.2 seconds.
## Chain 2 finished in 4.1 seconds.
## 
## All 4 chains finished successfully.
## Mean chain execution time: 4.1 seconds.
## Total execution time: 4.4 seconds.

# Report summary table
fit1$summary()

## # A tibble: 103 x 10
##    variable     mean   median    sd   mad       q5      q95  rhat ess_bulk
##    <chr>       <dbl>    <dbl> <dbl> <dbl>    <dbl>    <dbl> <dbl>    <dbl>
##  1 lp__     -2.85e+2 -2.85e+2 9.15  9.25  -301.    -2.71e+2  1.00     936.
##  2 beta[1]   6.07e-1  6.12e-1 1.71  1.75    -2.17   3.38e+0  1.00    1632.
##  3 beta[2]   3.94e-1  3.99e-1 0.322 0.317   -0.149  9.17e-1  1.00    2305.
##  4 beta[3]  -5.80e-1 -5.83e-1 0.330 0.326   -1.12  -3.25e-2  1.00    2657.
##  5 beta[4]   9.46e-2  9.25e-2 0.319 0.317   -0.421  6.18e-1  1.00    2374.
##  6 beta[5]   9.84e-1  9.84e-1 0.327 0.328    0.448  1.52e+0  1.00    2856.
##  7 beta[6]  -1.95e+0 -1.95e+0 0.316 0.317   -2.49  -1.44e+0  1.00    2523.
##  8 beta[7]   3.26e-1  3.24e-1 0.302 0.303   -0.166  8.23e-1  1.00    2861.
##  9 beta[8]   6.16e-2  6.58e-2 0.344 0.343   -0.519  6.17e-1  1.00    2137.
## 10 beta[9]   8.16e-1  8.17e-1 0.296 0.301    0.339  1.30e+0  1.00    3679.
## # ... with 93 more rows, and 1 more variable: ess_tail <dbl>
…
## Chain 2

## Chain 1 finished in 3.6 seconds.
## Chain 2 finished in 3.6 seconds.
## Chain 3 finished in 3.6 seconds.
## Chain 4 finished in 3.6 seconds.
## 
## All 4 chains finished successfully.
## Mean chain execution time: 3.6 seconds.
## Total execution time: 3.7 seconds.

# Report summary table
fit2$summary()

## # A tibble: 353 x 10
##    variable     mean   median    sd   mad       q5      q95  rhat ess_bulk
##    <chr>       <dbl>    <dbl> <dbl> <dbl>    <dbl>    <dbl> <dbl>    <dbl>
##  1 lp__     -3.19e+2 -3.19e+2 8.87  9.10  -334.    -3.05e+2  1.00    1157.
##  2 beta[1]   1.36e-1  1.40e-1 0.844 0.872   -1.26   1.52e+0  1.00    5848.
##  3 beta[2]   3.07e-1  3.06e-1 0.290 0.286   -0.162  7.84e-1  1.00    4996.
##  4 beta[3]  -4.78e-1 -4.79e-1 0.289 0.301   -0.942 -3.59e-3  1.00    4786.
##  5 beta[4]   6.59e-2  6.62e-2 0.286 0.283   -0.405  5.30e-1  1.00    4688.
##  6 beta[5]   7.13e-1  7.12e-1 0.297 0.302    0.224  1.20e+0  1.00    3825.
##  7 beta[6]  -1.71e+0 -1.71e+0 0.292 0.289   -2.18  -1.22e+0  1.00    4000.
##  8 beta[7]   3.14e-1  3.15e-1 0.282 0.281   -0.151  7.82e-1  1.00    5023.
##  9 beta[8]   4.92e-2  5.00e-2 0.304 0.299   -0.451  5.63e-1  1.00    4211.
## 10 beta[9]   7.74e-1  7.77e-1 0.267 0.259    0.338  1.22e+0  1.00    5502.
## # ... with 343 more rows, and 1 more variable: ess_tail <dbl>
…
## Chain 2

## Chain 3 finished in 4.4 seconds.
## Chain 4 finished in 4.5 seconds.
## Chain 1 finished in 4.6 seconds.
## Chain 2 finished in 4.8 seconds.
## 
## All 4 chains finished successfully.
## Mean chain execution time: 4.6 seconds.
## Total execution time: 4.9 seconds.

# Report summary table
fit3$summary()

## # A tibble: 353 x 10
##    variable     mean   median    sd   mad       q5      q95  rhat ess_bulk
##    <chr>       <dbl>    <dbl> <dbl> <dbl>    <dbl>    <dbl> <dbl>    <dbl>
##  1 lp__     -2.96e+2 -2.96e+2 9.37  9.06  -312.    -2.81e+2  1.01    1224.
##  2 beta[1]   3.46e-1  4.12e-1 1.59  1.53    -2.26   2.85e+0  1.00    1453.
##  3 beta[2]   4.06e-1  4.04e-1 0.314 0.308   -0.109  9.39e-1  1.00    2528.
##  4 beta[3]  -5.55e-1 -5.53e-1 0.325 0.322   -1.10  -2.82e-2  1.00    3149.
##  5 beta[4]   1.01e-1  1.01e-1 0.307 0.309   -0.401  5.97e-1  1.00    2608.
##  6 beta[5]   9.61e-1  9.61e-1 0.314 0.313    0.451  1.47e+0  1.00    2486.
##  7 beta[6]  -1.93e+0 -1.94e+0 0.316 0.316   -2.45  -1.41e+0  1.00    2150.
##  8 beta[7]   3.29e-1  3.32e-1 0.301 0.300   -0.170  8.25e-1  1.00    2955.
##  9 beta[8]   5.62e-2  5.91e-2 0.334 0.324   -0.487  6.08e-1  1.00    2514.
## 10 beta[9]   8.22e-1  8.26e-1 0.292 0.286    0.335  1.30e+0  1.00    3118.
## # ... with 343 more rows, and 1 more variable: ess_tail <dbl>
…
## Chain 2

## Chain 2 finished in 4.7 seconds.
## Chain 1 finished in 5.0 seconds.
## Chain 3 finished in 4.9 seconds.
## Chain 4 finished in 5.7 seconds.
## 
## All 4 chains finished successfully.
## Mean chain execution time: 5.0 seconds.
## Total execution time: 5.8 seconds.

# Report summary table
fit4$summary()

## # A tibble: 353 x 10
##    variable     mean   median    sd   mad       q5      q95  rhat ess_bulk
##    <chr>       <dbl>    <dbl> <dbl> <dbl>    <dbl>    <dbl> <dbl>    <dbl>
##  1 lp__     -3.55e+2 -3.54e+2 9.07  9.15  -370.    -3.40e+2  1.00    1143.
##  2 beta[1]   4.58e-1  4.98e-1 1.71  1.68    -2.40   3.21e+0  1.00    1667.
##  3 beta[2]   4.02e-1  3.97e-1 0.318 0.319   -0.119  9.11e-1  1.00    2995.
##  4 beta[3]  -5.82e-1 -5.79e-1 0.321 0.316   -1.12  -5.04e-2  1.00    2843.
##  5 beta[4]   1.01e-1  1.03e-1 0.315 0.319   -0.421  6.15e-1  1.00    2806.
##  6 beta[5]   9.85e-1  9.74e-1 0.313 0.308    0.488  1.51e+0  1.00    2564.
##  7 beta[6]  -1.94e+0 -1.95e+0 0.323 0.324   -2.46  -1.42e+0  1.00    2552.
##  8 beta[7]   3.13e-1  3.21e-1 0.297 0.300   -0.189  7.91e-1  1.00    3183.
##  9 beta[8]   5.03e-2  5.38e-2 0.335 0.334   -0.484  6.16e-1  1.00    2512.
## 10 beta[9]   8.27e-1  8.28e-1 0.295 0.291    0.336  1.32e+0  1.00    3166.
## # ... with 343 more rows, and 1 more variable: ess_tail <dbl>
…
